{
    "swagger": "2.0",
    "info": {
        "contact": {}
    },
    "paths": {
        "/login": {
            "post": {
                "description": "Login User",
                "consumes": [
                    "application/json"
                ],
                "produces": [
                    "application/json"
                ],
                "tags": [
                    "Login"
                ],
                "parameters": [
                    {
                        "description": "input",
                        "name": "email",
                        "in": "body",
                        "required": true,
                        "schema": {
                            "type": "string",
                            "example": "{\"username\":\"mira\",\"password\":\"passnya\"}"
                        }
                    }
                ],
                "responses": {}
            }
        },
        "/random-hero": {
            "get": {
                "description": "Single Random Hero",
                "consumes": [
                    "application/json"
                ],
                "produces": [
                    "application/json"
                ],
                "tags": [
                    "Random Hero"
                ],
                "responses": {}
            }
        },
        "/random-hero/{name}": {
            "get": {
                "description": "Single Random Hero By Name",
                "consumes": [
                    "application/json"
                ],
                "produces": [
                    "application/json"
                ],
                "tags": [
                    "Random Hero"
                ],
                "parameters": [
                    {
                        "type": "string",
                        "description": "Input Name Of Hero eg. Noctur",
                        "name": "name",
                        "in": "path",
                        "required": true
                    }
                ],
                "responses": {}
            }
        },
        "/submit-referral": {
            "post": {
                "description": "Submit Referral",
                "consumes": [
                    "application/json"
                ],
                "produces": [
                    "application/json"
                ],
                "tags": [
                    "User"
                ],
                "parameters": [
                    {
                        "description": "input",
                        "name": "email",
                        "in": "body",
                        "required": true,
                        "schema": {
                            "type": "string",
                            "example": "{\"referralCode\":\"69624d175f2b43e\"}"
                        }
                    },
                    {
                        "type": "string",
                        "description": "With the bearer",
                        "name": "Authorization",
                        "in": "header",
                        "required": true
                    }
                ],
                "responses": {}
            }
        },
        "/user": {
            "get": {
                "description": "Search User By Name",
                "consumes": [
                    "application/json"
                ],
                "produces": [
                    "application/json"
                ],
                "tags": [
                    "User"
                ],
                "parameters": [
                    {
                        "type": "string",
                        "default": "[\"name\",\"like\",\"MIRA\"]",
                        "description": "name search",
                        "name": "filters",
                        "in": "query"
                    }
                ],
                "responses": {}
            },
            "post": {
                "description": "Add User",
                "consumes": [
                    "application/json"
                ],
                "produces": [
                    "application/json"
                ],
                "tags": [
                    "User"
                ],
                "parameters": [
                    {
                        "description": "input",
                        "name": "email",
                        "in": "body",
                        "required": true,
                        "schema": {
                            "type": "string",
                            "example": "{\"username\":\"mira\",\"password\":\"passnya\",\"name\":\"mira\",\"email\":\"mira@gmail.com\"}"
                        }
                    }
                ],
                "responses": {}
            }
        },
        "/user/{username}": {
            "put": {
                "description": "Edit User",
                "consumes": [
                    "application/json"
                ],
                "produces": [
                    "application/json"
                ],
                "tags": [
                    "User"
                ],
                "parameters": [
                    {
                        "description": "input",
                        "name": "email",
                        "in": "body",
                        "required": true,
                        "schema": {
                            "type": "string",
                            "example": "{\"username\":\"mira\",\"password\":\"passnya\",\"name\":\"mira\",\"email\":\"mira@gmail.com\"}"
                        }
                    },
                    {
                        "type": "string",
                        "description": "Input Username",
                        "name": "username",
                        "in": "path",
                        "required": true
                    },
                    {
                        "type": "string",
                        "description": "With the bearer",
                        "name": "Authorization",
                        "in": "header",
                        "required": true
                    }
                ],
                "responses": {}
            }
        }
    }
}